/* XPM */
static char *magick[] = {
/* columns rows colors chars-per-pixel */
"22 22 4 1",
"  c black",
". c #105292",
"X c #c0c0c0",
"o c None",
/* pixels */
"oooooooooooooooooooooo",
"oooooooooooooooooooooo",
"oooooooooooooooooooooo",
"oooooooooooooooooooooo",
"ooooooooooo    ooooooo",
"ooooooooooooo   oooooo",
"ooo.ooooooooo   oooooo",
"ooo..oooooooo   oooooo",
"ooo...ooooooo   oooooo",
"ooo....oooooo   oooooo",
"ooo.....oooooo    oooo",
"ooo.....ooooo   oooooo",
"ooo....oooooo   oooooo",
"ooo...ooooooo   oooooo",
"ooo..oooooooo   oooooo",
"ooo.ooooooooo   oooooo",
"ooooooooooo    ooooooo",
"oooooooooooooooooooooo",
"oooooooooooooooooooooo",
"oooooooooooooooooooooo",
"oooooooooooooooooooooo",
"oooooooooooooooooooooo"
};
