/* XPM */
static char * file_pix_xpm[] = {
"16 16 12 1",
" 	s None	c None",
".	c tan",
"X	c tan3",
"o	c saddlebrown",
"O	c red",
"@	c green",
"#	c purple",
"$	c black",
"%	c white",
"&	c blue",
"*	c steelblue1",
"x	c yellow",
"                ",
"     ....XXo    ",
"  ...xXXOOOXo   ",
" ..XxxxXOOOXXo  ",
"..X.xxxXXOOXXXo ",
".@@XXXXXXOXX#Xo ",
".@@@XXXX$OX###Xo",
"..@XXXX$$$X###Xo",
".XXXXXX$$XXXXXXo",
" .XXX.%$XXX&&&Xo",
"  XX.%*XXXX&&&Xo",
"   .XoXXXXXX&&Xo",
"  .XoXXXXX$$$XXo",
" .Xo  XXXX$$$XX ",
".Xo     XXX$XXo ",
"Xo       XXXXo  "};
